…
  #Select relevant columns
  select(party, leave_share, voting_share) %>% 
  
  #Rename the columns appropriately
  mutate(party = case_when(
    party == "con_2015" ~ "Conserative",
    party == "lab_2015" ~ "Labour",
    party == "ld_2015" ~ "Lib Dems",
    party == "ukip_2015" ~ "UKIP"
  ))

elections_pivoted

## # A tibble: 2,528 x 3
##    party       leave_share voting_share
##    <chr>             <dbl>        <dbl>
##  1 Conserative        57.9        50.6 
##  2 Labour             57.9        18.3 
##  3 Lib Dems           57.9         8.82
##  4 UKIP               57.9        17.9 
##  5 Conserative        67.8        52.0 
##  6 Labour             67.8        22.4 
##  7 Lib Dems           67.8         3.37
##  8 UKIP               67.8        19.6 
##  9 Conserative        38.6        53.0 
## 10 Labour             38.6        26.7 
## # ... with 2,518 more rows
…
