…
Select the year and the twelve month variables from the weather dataset. We do not need the others (J-D, D-N, DJF, etc.) for this assignment. Hint: use select() function.

Convert the dataframe from wide to ‘long’ format. Hint: use gather() or pivot_longer() function. Name the new dataframe as tidyweather, name the variable containing the name of the month as month, and the temperature deviation values as delta.

#select desired columns
weather_cleaned<-weather %>% 
  select(1:13,)

#convert dataframe to long format
tidyweather<- weather_cleaned %>% 
  pivot_longer(cols=2:13,names_to = "Month",values_to = "delta")

tidyweather

## # A tibble: 1,704 x 3
##     Year Month delta
##    <dbl> <chr> <dbl>
##  1  1880 Jan   -0.34
##  2  1880 Feb   -0.5 
##  3  1880 Mar   -0.22
##  4  1880 Apr   -0.29
##  5  1880 May   -0.05
##  6  1880 Jun   -0.15
##  7  1880 Jul   -0.17
##  8  1880 Aug   -0.25
##  9  1880 Sep   -0.22
## 10  1880 Oct   -0.31
## # ... with 1,694 more rows
…
So far, we have been working with monthly anomalies. However, we might be interested in average annual anomalies. We can do this by using group_by() and summarise(), followed by a scatter plot to display the result.

#creating yearly averages
average_annual_anomaly <- tidyweather %>% 
  group_by(Year) %>%   #grouping data by Year
  
  # creating summaries for mean delta 
  # use `na.rm=TRUE` to eliminate NA (not available) values 
  summarise(annual_average_delta=mean(delta,na.rm=TRUE)) 
average_annual_anomaly

## # A tibble: 142 x 2
##     Year annual_average_delta
##    <dbl>                <dbl>
##  1  1880               -0.276
##  2  1881               -0.167
##  3  1882               -0.208
##  4  1883               -0.281
##  5  1884               -0.425
##  6  1885               -0.432
##  7  1886               -0.432
##  8  1887               -0.436
##  9  1888               -0.238
## 10  1889               -0.178
## # ... with 132 more rows
…
# use the infer package to construct a 95% CI for delta
set.seed(007)
library(infer)

bootstrap_delta<- comparison %>% 
  filter(interval=="2011-present") %>% 
  specify(response = delta) %>% 
  generate(reps = 1000,type="bootstrap") %>% 
  calculate(stat = "mean")

bootstrap_delta

## Response: delta (numeric)
## # A tibble: 1,000 x 2
##    replicate  stat
##        <int> <dbl>
##  1         1  1.04
##  2         2  1.04
##  3         3  1.08
##  4         4  1.06
##  5         5  1.05
##  6         6  1.06
##  7         7  1.08
##  8         8  1.07
##  9         9  1.09
## 10        10  1.06
## # ... with 990 more rows
…
#find average monthly rentals for 2016-2019 (each year seperate)
bikes_monthly_mean <- bike %>% 
  filter(year %in% c(2016,2017,2018,2019,2020,2021)) %>% 
  group_by(month, year) %>% 
  summarize(
    mean_monthly_bikes = mean(bikes_hired)
  )
bikes_monthly_mean

## # A tibble: 67 x 3
## # Groups:   month [12]
##    month  year mean_monthly_bikes
##    <ord> <dbl>              <dbl>
##  1 Jan    2016             18914.
##  2 Jan    2017             20596.
##  3 Jan    2018             20836.
##  4 Jan    2019             22123.
##  5 Jan    2020             22893.
##  6 Jan    2021             13218.
##  7 Feb    2016             20608.
##  8 Feb    2017             22091.
##  9 Feb    2018             20587.
## 10 Feb    2019             24961.
## # ... with 57 more rows

bikes_with_avg <- left_join(bikes_monthly_mean, monthly_avg, on='month')

#find change in rentals compared to average
bikes_with_avg <- bikes_with_avg %>% 
  mutate(excess_rentals = mean_monthly_bikes - mean_bikes_overall)

bikes_with_avg

## # A tibble: 67 x 5
## # Groups:   month [12]
##    month  year mean_monthly_bikes mean_bikes_overall excess_rentals
##    <ord> <dbl>              <dbl>              <dbl>          <dbl>
##  1 Jan    2016             18914.             20617.        -1703. 
##  2 Jan    2017             20596.             20617.          -20.6
##  3 Jan    2018             20836.             20617.          218. 
##  4 Jan    2019             22123.             20617.         1505. 
##  5 Jan    2020             22893.             20617.         2276. 
##  6 Jan    2021             13218.             20617.        -7399. 
##  7 Feb    2016             20608.             22049.        -1441. 
##  8 Feb    2017             22091.             22049.           42.1
##  9 Feb    2018             20587.             22049.        -1462. 
## 10 Feb    2019             24961.             22049.         2912. 
## # ... with 57 more rows

month_labs<-c("Jan","Feb","Mar","Apr","May","Jun","Jul","Aug","Sep","Oct","Nov","Dec")
bikes_with_avg$month <-factor(bikes_with_avg$month,label=month_labs,ordered = TRUE)
bikes_with_avg

## # A tibble: 67 x 5
## # Groups:   month [12]
##    month  year mean_monthly_bikes mean_bikes_overall excess_rentals
##    <ord> <dbl>              <dbl>              <dbl>          <dbl>
##  1 Jan    2016             18914.             20617.        -1703. 
##  2 Jan    2017             20596.             20617.          -20.6
##  3 Jan    2018             20836.             20617.          218. 
##  4 Jan    2019             22123.             20617.         1505. 
##  5 Jan    2020             22893.             20617.         2276. 
##  6 Jan    2021             13218.             20617.        -7399. 
##  7 Feb    2016             20608.             22049.        -1441. 
##  8 Feb    2017             22091.             22049.           42.1
##  9 Feb    2018             20587.             22049.        -1462. 
## 10 Feb    2019             24961.             22049.         2912. 
## # ... with 57 more rows

#create first required plot

#create variables "up" and "down" denoting the shifts from the average
bikes_with_avg_new<-bikes_with_avg %>% 
  mutate(up=ifelse(excess_rentals>0,as.numeric(excess_rentals),0),down=ifelse(excess_rentals<0,as.numeric(excess_rentals),0)) %>% 
  arrange(year,month)

bikes_with_avg_new

## # A tibble: 67 x 7
## # Groups:   month [12]
##    month  year mean_monthly_bikes mean_bikes_overall excess_rentals    up   down
##    <ord> <dbl>              <dbl>              <dbl>          <dbl> <dbl>  <dbl>
##  1 Jan    2016             18914.             20617.         -1703.    0  -1703.
##  2 Feb    2016             20608.             22049.         -1441.    0  -1441.
##  3 Mar    2016             21435              23237.         -1802.    0  -1802.
##  4 Apr    2016             25444.             28299.         -2856.    0  -2856.
##  5 May    2016             32699.             33270.          -571.    0   -571.
##  6 Jun    2016             32108.             35413.         -3306.    0  -3306.
##  7 Jul    2016             38336.             38109.           227.  227.     0 
##  8 Aug    2016             37368.             34393.          2975. 2975.     0 
##  9 Sep    2016             35101.             33013.          2088. 2088.     0 
## 10 Oct    2016             30488.             30235.           254.  254.     0 
## # ... with 57 more rows
…
#calculate weekly averages
weekly_avg <- bike1 %>% 
  filter(year %in% c(2016,2017,2018,2019)) %>% 
  group_by(week) %>% 
  summarise(
    mean_weekly_overall = mean(bikes_hired)
  )

weekly_avg

## # A tibble: 52 x 2
##     week mean_weekly_overall
##    <dbl>               <dbl>
##  1     1              17388.
##  2     2              22056.
##  3     3              21892.
##  4     4              21470.
##  5     5              21194.
##  6     6              20226.
##  7     7              23254.
##  8     8              23575.
##  9     9              20167 
## 10    10              23403.
## # ... with 42 more rows

#edit for week 53(some days are counted towards the wrong year)
weekly_avg_53 <- bike1 %>% 
  filter(year == 2015 & week==53) %>% 
  group_by(week) %>% 
  summarise(
    mean_weekly_overall = mean(bikes_hired)
  )

#combine the dataframes to create final dataframe
weekly_avg_new<-full_join(weekly_avg,weekly_avg_53,on='week')
weekly_avg_new

## # A tibble: 53 x 2
##     week mean_weekly_overall
##    <dbl>               <dbl>
##  1     1              17388.
##  2     2              22056.
##  3     3              21892.
##  4     4              21470.
##  5     5              21194.
##  6     6              20226.
##  7     7              23254.
##  8     8              23575.
##  9     9              20167 
## 10    10              23403.
## # ... with 43 more rows

bikes_weekly_mean <- bike1 %>%
  filter(year %in% c(2016,2017,2018,2019,2020,2021)) %>%
  group_by(year,week) %>%
  summarize(
    mean_weekly_bikes = mean(bikes_hired)
  )

bikes_weekly_mean

## # A tibble: 291 x 3
## # Groups:   year [6]
##     year  week mean_weekly_bikes
##    <dbl> <dbl>             <dbl>
##  1  2016     1            18867.
##  2  2016     2            20255.
##  3  2016     3            20937.
##  4  2016     4            20550.
##  5  2016     5            21230 
##  6  2016     6            19896.
##  7  2016     7            19655.
##  8  2016     8            21205.
##  9  2016     9            19865.
## 10  2016    10            21974.
## # ... with 281 more rows
…
#mutate to include "up" and "down" variables (similarly as above)
bikes_week_avg_new<-bikes_week_avg %>%
  mutate(excess_weekly_rentals_percent=(excess_weekly_rentals/mean_weekly_overall)*100,
         up=ifelse(excess_weekly_rentals>0,
                   as.numeric(excess_weekly_rentals/mean_weekly_overall)*100,
                   0),
         down=ifelse(excess_weekly_rentals<0,
                     as.numeric(excess_weekly_rentals/mean_weekly_overall)*100
                     ,0)
         ) %>%
  arrange(year,week)

bikes_week_avg_new

## # A tibble: 291 x 8
## # Groups:   year [6]
##     year  week mean_weekly_bikes mean_weekly_overall excess_weekly_rentals
##    <dbl> <dbl>             <dbl>               <dbl>                 <dbl>
##  1  2016     1            18867.              17388.                1479. 
##  2  2016     2            20255.              22056.               -1802. 
##  3  2016     3            20937.              21892.                -955. 
##  4  2016     4            20550.              21470.                -920. 
##  5  2016     5            21230               21194.                  35.8
##  6  2016     6            19896.              20226.                -330. 
##  7  2016     7            19655.              23254.               -3599  
##  8  2016     8            21205.              23575.               -2370. 
##  9  2016     9            19865.              20167                 -302. 
## 10  2016    10            21974.              23403.               -1429. 
## # ... with 281 more rows, and 3 more variables:
## #   excess_weekly_rentals_percent <dbl>, up <dbl>, down <dbl>
…
